…
## Results

    ## # A tibble: 88 x 240
    ##    FIPS  State  County Deaths `Years of Poten~ `95% CI - Low..~ `95% CI - High.~
    ##    <chr> <chr>  <chr>   <dbl>            <dbl>            <dbl>            <dbl>
    ##  1 27000 Minne~ <NA>    51060            5279.            5209.            5348.
    ##  2 27001 Minne~ Aitkin    278           10288.            7884.           12692.
    ##  3 27003 Minne~ Anoka    3129            5129.            4856.            5402.
    ##  4 27005 Minne~ Becker    411            6589.            5558.            7619.
    ##  5 27007 Minne~ Beltr~    537            8714.            7673.            9755.
    ##  6 27009 Minne~ Benton    378            5952.            5121.            6784.
    ##  7 27011 Minne~ Big S~     NA              NA               NA               NA 
    ##  8 27013 Minne~ Blue ~    555            5371.            4714.            6028.
    ##  9 27015 Minne~ Brown     240            5543.            4393.            6694.
    ## 10 27017 Minne~ Carlt~    429            6375.            5413.            7338.
    ## # ... with 78 more rows, and 233 more variables: Z-Score...8 <dbl>,
    ## #   YPLL Rate (AIAN) <dbl>, YPLL Rate (AIAN) 95% CI - Low <dbl>,
    ## #   YPLL Rate (AIAN) 95% CI - High <dbl>, YPLL Rate (Asian) <dbl>,
    ## #   YPLL Rate (Asian) 95% CI - Low <dbl>,
    ## #   YPLL Rate (Asian) 95% CI - High <dbl>, YPLL Rate (Black) <dbl>,
    ## #   YPLL Rate (Black) 95% CI - Low <dbl>,
    ## #   YPLL Rate (Black) 95% CI - High <dbl>, YPLL Rate (Hispanic) <dbl>,
    ## #   YPLL Rate (Hispanic) 95% CI - Low <dbl>,
    ## #   YPLL Rate (Hispanic) 95% CI - High <dbl>, YPLL Rate (White) <dbl>,
…
    ## $ `% Drive Alone (Black) 95% CI - Low`          <dbl> NA, NA, 66.53529, NA, NA~
    ## $ `% Drive Alone (Black) 95% CI - High`         <dbl> NA, NA, 79.26459, NA, NA~
    ## $ `% Drive Alone (Hispanic)`                    <dbl> NA, NA, 63.13263, NA, 52~
    ## $ `% Drive Alone (Hispanic) 95% CI - Low`       <dbl> NA, NA, 58.27619, NA, 38~
    ## $ `% Drive Alone (Hispanic) 95% CI - High`      <dbl> NA, NA, 67.98907, NA, 67~
    ## $ `% Drive Alone (White)`                       <dbl> NA, NA, 83.28017, 78.891~
    ## $ `% Drive Alone (White) 95% CI - Low`          <dbl> NA, NA, 82.47364, 76.545~
    ## $ `% Drive Alone (White) 95% CI - High`         <dbl> NA, NA, 84.08670, 81.238~
    ## $ `# Workers who Drive Alone`                   <dbl> 2879806, 6114, 186870, 1~
    ## $ `% Long Commute - Drives Alone`               <dbl> 30.9, 34.6, 43.5, 25.5, ~
    ## $ `95% CI - Low...238`                          <dbl> 30.66170, 31.73051, 42.4~
    ## $ `95% CI - High...239`                         <dbl> 31.13830, 37.46949, 44.5~
    ## $ `Z-Score...240`                               <dbl> NA, 0.70562454, 1.558121~

    ## # A tibble: 88 x 10
    ##    FIPS  State  County  Deaths Housing_Probs FP_Health Smokers Mental_Unhealthy~
    ##    <chr> <chr>  <chr>    <dbl>         <dbl>     <dbl>   <dbl>             <dbl>
    ##  1 27000 Minne~ <NA>     51060         13.4       12.1    14.5              3.10
    ##  2 27001 Minne~ Aitkin     278         15.2       14.2    15.2              3.47
    ##  3 27003 Minne~ Anoka     3129         11.8       11.9    14.5              3.14
    ##  4 27005 Minne~ Becker     411         13.4       12.6    16.6              3.20
    ##  5 27007 Minne~ Beltra~    537         14.6       15.2    19.4              3.64
    ##  6 27009 Minne~ Benton     378         14.5       12.7    16.8              3.27
    ##  7 27011 Minne~ Big St~     NA         11.5       12.8    14.6              3.14
    ##  8 27013 Minne~ Blue E~    555         15.3       13.7    16.0              3.39
    ##  9 27015 Minne~ Brown      240          9.77      11.3    12.6              2.92
    ## 10 27017 Minne~ Carlton    429         13.6       12.0    19.6              3.20
    ## # ... with 78 more rows, and 2 more variables: Children_Poverty <dbl>,
    ## #   Life_Expec <dbl>
…
